out/dump.vcd
$date
	Tue Oct 07 22:28:49 2025
$end
$version
	Icarus Verilog
$end
$timescale
	1s
$end
$scope module test $end
$var wire 8 ! regA_out [7:0] $end
$var wire 8 " regB_out [7:0] $end
$var reg 1 # add_a_dir_test_failed $end
$var reg 1 $ clk $end
$var reg 1 % jeq_test_1_failed $end
$var reg 1 & mem_sequence_test_failed $end
$scope module Comp $end
$var wire 8 ' alu_a_inc [7:0] $end
$var wire 8 ( alu_a_sub [7:0] $end
$var wire 1 $ clk $end
$var wire 1 ) is_not $end
$var wire 1 * is_shl $end
$var wire 1 + is_shr $end
$var wire 1 , is_sub $end
$var wire 1 - is_unary $end
$var wire 1 . z_in $end
$var wire 1 / z $end
$var wire 2 0 wb_sel [1:0] $end
$var wire 8 1 wb_data_B [7:0] $end
$var wire 8 2 wb_data_A [7:0] $end
$var wire 1 3 v_in $end
$var wire 1 4 v $end
$var wire 1 5 use_mem_data $end
$var wire 1 6 use_mem_addr $end
$var wire 1 7 use_lit $end
$var wire 2 8 src_sel [1:0] $end
$var wire 8 9 regB_out [7:0] $end
$var wire 8 : regA_out [7:0] $end
$var wire 7 ; pc_out [6:0] $end
$var wire 1 < pc_load $end
$var wire 7 = opcode [6:0] $end
$var wire 1 > n_in $end
$var wire 1 ? n $end
$var wire 1 @ mem_write $end
$var wire 1 A mem_src $end
$var wire 1 B mem_read $end
$var wire 8 C mem_data_in [7:0] $end
$var wire 8 D mem_addr [7:0] $end
$var wire 1 E loadB $end
$var wire 1 F loadA $end
$var wire 8 G literal [7:0] $end
$var wire 1 H is_inc $end
$var wire 15 I im_out [14:0] $end
$var wire 2 J dst_sel [1:0] $end
$var wire 8 K data_out [7:0] $end
$var wire 1 L c_in $end
$var wire 1 M c $end
$var wire 3 N alu_s [2:0] $end
$var wire 8 O alu_out [7:0] $end
$var wire 8 P alu_b_sub [7:0] $end
$var wire 8 Q alu_b_normal [7:0] $end
$var wire 8 R alu_b [7:0] $end
$var wire 8 S alu_a_unary [7:0] $end
$var wire 8 T alu_a_normal [7:0] $end
$var wire 8 U alu_a [7:0] $end
$scope module ALU $end
$var wire 8 V a [7:0] $end
$var wire 8 W b [7:0] $end
$var wire 1 L c $end
$var wire 1 . z $end
$var wire 1 3 v $end
$var wire 3 X s [2:0] $end
$var wire 8 Y out [7:0] $end
$var wire 1 > n $end
$var reg 1 Z carry_out $end
$var reg 9 [ result [8:0] $end
$upscope $end
$scope module CU $end
$var wire 7 \ opcode [6:0] $end
$var wire 1 / Z $end
$var wire 1 4 V $end
$var wire 1 ? N $end
$var wire 1 M C $end
$var reg 3 ] alu_s [2:0] $end
$var reg 2 ^ dst_sel [1:0] $end
$var reg 1 F loadA $end
$var reg 1 E loadB $end
$var reg 1 B mem_read $end
$var reg 1 A mem_src $end
$var reg 1 @ mem_write $end
$var reg 1 < pc_load $end
$var reg 2 _ src_sel [1:0] $end
$var reg 1 7 use_lit $end
$var reg 1 6 use_mem_addr $end
$var reg 1 5 use_mem_data $end
$var reg 2 ` wb_sel [1:0] $end
$upscope $end
$scope module DM $end
$var wire 8 a address [7:0] $end
$var wire 1 $ clk $end
$var wire 8 b data_in [7:0] $end
$var wire 8 c data_out [7:0] $end
$var wire 1 @ write_enable $end
$upscope $end
$scope module IM $end
$var wire 15 d out [14:0] $end
$var wire 7 e address [6:0] $end
$upscope $end
$scope module PC $end
$var wire 1 $ clk $end
$var wire 1 < load $end
$var wire 7 f new_value [6:0] $end
$var reg 7 g pc [6:0] $end
$upscope $end
$scope module SR $end
$var wire 1 L c_in $end
$var wire 1 $ clk $end
$var wire 1 > n_in $end
$var wire 1 3 v_in $end
$var wire 1 . z_in $end
$var reg 1 M c $end
$var reg 1 ? n $end
$var reg 1 4 v $end
$var reg 1 / z $end
$upscope $end
$scope module regA $end
$var wire 1 $ clk $end
$var wire 8 h data [7:0] $end
$var wire 1 F load $end
$var reg 8 i out [7:0] $end
$upscope $end
$scope module regB $end
$var wire 1 $ clk $end
$var wire 8 j data [7:0] $end
$var wire 1 E load $end
$var reg 8 k out [7:0] $end
$upscope $end
$upscope $end
$upscope $end
$enddefinitions $end
$comment Show the parameter values. $end
$dumpall
$end
#0
$dumpvars
b0 k
b1100011 j
b0 i
b1100011 h
b0 g
b1100011 f
b0 e
b1101100011 d
bx c
b0 b
b1100011 a
b1 `
b0 _
b0 ^
b0 ]
b11 \
b1100011 [
0Z
b1100011 Y
b0 X
b1100011 W
b0 V
b0 U
b0 T
b0 S
b1100011 R
b1100011 Q
b1100011 P
b1100011 O
b0 N
0M
0L
bx K
b0 J
b1101100011 I
0H
b1100011 G
0F
1E
b1100011 D
b0 C
0B
0A
0@
0?
0>
b11 =
0<
b0 ;
b0 :
b0 9
b0 8
17
06
05
04
03
b1100011 2
b1100011 1
b1 0
0/
0.
0-
0,
0+
0*
0)
b0 (
b0 '
0&
0%
0$
0#
b0 "
b0 !
$end
#1
b110010 1
b110010 j
b110010 2
b110010 h
b110010 O
b110010 Y
b110010 [
b110010 R
b110010 W
b110010 Q
b110010 P
b1100011 C
b1100011 b
b110010 D
b110010 a
1A
1@
b0 0
b0 `
17
0E
b110010 G
b101000 =
b101000 \
b110010 f
b1100011 S
b10100000110010 I
b10100000110010 d
b1 ;
b1 e
b1 g
b1100011 '
b1100011 "
b1100011 9
b1100011 k
1$
#2
0$
#3
b1100011 1
b1100011 j
b1100011 2
b1100011 h
b0 C
b0 b
b10 0
b10 `
1B
1F
0A
17
0@
b100101 =
b100101 \
b1100011 K
b1100011 c
b10010100110010 I
b10010100110010 d
b10 ;
b10 e
b10 g
1$
#4
0$
#5
13
1>
b1111011 R
b1111011 W
b11011110 O
b11011110 Y
b11011110 [
b1100011 U
b1100011 V
b1111011 Q
b1111011 P
b1111011 1
b1111011 j
b1111011 2
b1111011 h
bx K
bx c
b1111011 D
b1111011 a
b1 0
b1 `
17
0B
1F
b1111011 G
b10 =
b10 \
b1111011 f
b1100011 C
b1100011 b
b1100011 T
b1001111011 I
b1001111011 d
b11 ;
b11 e
b11 g
b1100011 (
b1100011 !
b1100011 :
b1100011 i
1$
#6
0$
#7
b10101110 O
b10101110 Y
b110011 R
b110011 W
b10101110 [
b1111011 U
b1111011 V
b110011 Q
b110011 P
b110011 D
b110011 a
b10101110 2
b10101110 h
b10101110 1
b10101110 j
1@
b0 0
b0 `
17
0F
b1111011 C
b1111011 b
b1111011 T
b110011 G
b100111 =
b100111 \
b110011 f
b1111011 (
b1111011 !
b1111011 :
b1111011 i
14
1?
b10011100110011 I
b10011100110011 d
b100 ;
b100 e
b100 g
1$
#8
0$
#9
b1111011 1
b1111011 j
b1111011 2
b1111011 h
b10 0
b10 `
1B
1E
17
0@
b100110 =
b100110 \
b10011000110011 I
b10011000110011 d
b101 ;
b101 e
b101 g
b1111011 K
b1111011 c
1$
#10
0$
#11
03
0>
b1111010 O
b1111010 Y
1L
1Z
b101111010 [
b11111111 R
b11111111 W
b11111111 Q
b11111111 P
b11111111 1
b11111111 j
b11111111 2
b11111111 h
bx K
bx c
b11111111 D
b11111111 a
1F
b1 0
b1 `
17
0B
0E
b1111011 S
b11111111 G
b10 =
b10 \
b1111111 f
b1111011 '
b1111011 "
b1111011 9
b1111011 k
b1011111111 I
b1011111111 d
b110 ;
b110 e
b110 g
1$
#12
0$
#13
03
0>
b110010 R
b110010 W
b110001 O
b110001 Y
b100110001 [
b11111111 U
b11111111 V
b110010 Q
b110010 P
b1100011 K
b1100011 c
b110010 D
b110010 a
b110001 2
b110001 h
b110001 1
b110001 j
1@
b0 0
b0 `
17
0F
b110010 G
b100111 =
b100111 \
b110010 f
b11111111 C
b11111111 b
b11111111 T
b10011100110010 I
b10011100110010 d
b111 ;
b111 e
b111 g
04
1M
0?
b11111111 (
b11111111 !
b11111111 :
b11111111 i
1$
#14
0$
#15
1>
b11111111 O
b11111111 Y
0L
0Z
b11111111 [
b0 R
b0 W
b0 Q
b0 P
b0 1
b0 j
b0 2
b0 h
b0 D
b0 a
b1 0
b1 `
1F
17
0@
b0 G
b10 =
b10 \
b0 f
bx K
bx c
b1000000000 I
b1000000000 d
b1000 ;
b1000 e
b1000 g
1$
#16
0$
#17
03
0>
b110010 R
b110010 W
0.
b110010 O
b110010 Y
b110010 [
b0 U
b0 V
b110010 Q
b110010 P
b11111111 K
b11111111 c
b110010 D
b110010 a
b11111111 2
b11111111 h
b11111111 1
b11111111 j
1B
b10 0
b10 `
17
1F
b110010 G
b100101 =
b100101 \
b110010 f
b0 C
b0 b
b0 T
b10010100110010 I
b10010100110010 d
b1001 ;
b1001 e
b1001 g
0M
1?
b0 (
b0 !
b0 :
b0 i
1$
#18
0$
#19
b1100011 O
b1100011 Y
b1100100 R
b1100100 W
1L
1Z
b101100011 [
b11111111 U
b11111111 V
b1100100 Q
b1100100 P
b1100100 1
b1100100 j
b1100100 2
b1100100 h
bx K
bx c
b1100100 D
b1100100 a
b1 0
b1 `
17
0B
1F
b11111111 C
b11111111 b
b11111111 T
b1100100 G
b10 =
b10 \
b1100100 f
b11111111 (
b11111111 !
b11111111 :
b11111111 i
0?
b1001100100 I
b1001100100 d
b1010 ;
b1010 e
b1010 g
1$
#20
0$
#21
13
1>
b110010 R
b110010 W
b10010110 O
b10010110 Y
0L
0Z
b10010110 [
b1100100 U
b1100100 V
b110010 Q
b110010 P
b11111111 K
b11111111 c
b110010 D
b110010 a
b110010 2
b110010 h
b110010 1
b110010 j
1E
b1 0
b1 `
17
0F
b110010 G
b11 =
b11 \
b110010 f
b1100100 C
b1100100 b
b1100100 T
b1100110010 I
b1100110010 d
b1011 ;
b1011 e
b1011 g
1M
b1100100 (
b1100100 !
b1100100 :
b1100100 i
1$
#22
0$
#23
b11011100 O
b11011100 Y
b11011100 [
b1111000 R
b1111000 W
b1111000 Q
b1111000 P
b110010 C
b110010 b
bx K
bx c
b1111000 D
b1111000 a
b11011100 2
b11011100 h
b11011100 1
b11011100 j
1A
1@
b0 0
b0 `
17
0E
b110010 S
b1111000 G
b101000 =
b101000 \
b1111000 f
b110010 '
b110010 "
b110010 9
b110010 k
14
0M
1?
b10100001111000 I
b10100001111000 d
b1100 ;
b1100 e
b1100 g
1$
#24
0$
#25
b10010110 1
b10010110 j
b10010110 2
b10010110 h
b10010110 O
b10010110 Y
b10010110 [
b110010 R
b110010 W
b110010 P
b110010 Q
b1100100 C
b1100100 b
1B
15
1F
0A
17
0@
b101100 =
b101100 \
b10110001111000 I
b10110001111000 d
b1101 ;
b1101 e
b1101 g
b110010 K
b110010 c
1$
#26
0$
#27
03
b10101111 O
b10101111 Y
b11001 R
b11001 W
b10101111 [
b10010110 U
b10010110 V
b11001 1
b11001 j
b11001 2
b11001 h
b11001 P
b11001 Q
bx K
bx c
b11001 D
b11001 a
b1 0
b1 `
05
17
0B
1F
b10010110 C
b10010110 b
b10010110 T
b11001 G
b10 =
b10 \
b11001 f
b10010110 (
b10010110 !
b10010110 :
b10010110 i
b1000011001 I
b1000011001 d
b1110 ;
b1110 e
b1110 g
1$
#28
0$
#29
03
0>
b110010 O
b110010 Y
b110010 [
b11001 U
b11001 V
1E
b1 0
b1 `
17
0F
b11 =
b11 \
b11001 C
b11001 b
b11001 T
b1100011001 I
b1100011001 d
b1111 ;
b1111 e
b1111 g
04
b11001 (
b11001 !
b11001 :
b11001 i
1$
#30
0$
#31
1.
b0 O
b0 Y
1L
1Z
b0 [
b0 D
b0 a
b0 2
b0 h
b0 1
b0 j
b1 N
b1 X
b1 ]
b0 0
b0 `
07
0E
b11001 S
b0 G
b1001101 =
b1001101 \
b0 f
b11001 '
b11001 "
b11001 9
b11001 k
0?
b100110100000000 I
b100110100000000 d
b10000 ;
b10000 e
b10000 g
1$
#32
0$
#33
b10100 R
b10100 W
b101101 1
b101101 j
b101101 2
b101101 h
b10100 P
b10100 Q
0.
b101101 O
b101101 Y
0L
0Z
b101101 [
b10100 D
b10100 a
17
1<
b10100 G
b1010100 =
b1010100 \
b10100 f
b0 N
b0 X
b0 ]
b101010000010100 I
b101010000010100 d
b10001 ;
b10001 e
b10001 g
1M
1/
1$
#34
0$
#35
b11010 O
b11010 Y
b11010 [
b1 R
b1 W
b1 Q
b1 P
b1 1
b1 j
b1 2
b1 h
b1 D
b1 a
b1 0
b1 `
1E
17
0<
b1 G
b11 =
b11 \
b1 f
0M
0/
b1100000001 I
b1100000001 d
b10100 ;
b10100 e
b10100 g
1$
#36
0$
#37
b1111101 O
b1111101 Y
b1111101 [
b1100100 R
b1100100 W
b1100100 Q
b1100100 P
b1 C
b1 b
b1100100 D
b1100100 a
b1111101 2
b1111101 h
b1111101 1
b1111101 j
1A
1@
b0 0
b0 `
17
0E
b1100100 G
b101000 =
b101000 \
b1100100 f
b1 S
b10100001100100 I
b10100001100100 d
b10101 ;
b10101 e
b10101 g
b1 '
b1 "
b1 9
b1 k
1$
#38
0$
#39
x3
bx 1
bx j
bx 2
bx h
x>
x.
bx O
bx Y
xL
xZ
bx [
b1 Q
b1 P
x-
b0xx001 U
b0xx001 V
b0x R
b0x W
b11001 C
b11001 b
bx D
bx a
x)
x*
x+
x,
0A
07
0@
bx G
xH
bx =
bx \
bx f
bx K
bx c
bx I
bx d
b10110 ;
b10110 e
b10110 g
1$
#40
0$
#41
b10111 ;
b10111 e
b10111 g
x4
xM
x?
x/
1$
#42
0$
#43
b11000 ;
b11000 e
b11000 g
1$
#44
0$
#45
b11001 ;
b11001 e
b11001 g
1$
