out/dump.vcd
$date
	Wed Oct  1 14:21:40 2025
$end
$version
	Icarus Verilog
$end
$timescale
	1s
$end
$scope module test $end
$var wire 8 ! regA_out [7:0] $end
$var wire 8 " regB_out [7:0] $end
$var reg 1 # add_test_failed $end
$var reg 1 $ and_test_failed $end
$var reg 1 % clk $end
$var reg 1 & inc_test_failed $end
$var reg 1 ' mov_test_failed $end
$var reg 1 ( not_test_failed $end
$var reg 1 ) or_test_failed $end
$var reg 1 * reg_mov_test_failed $end
$var reg 1 + shl_test_failed $end
$var reg 1 , shr_test_failed $end
$var reg 1 - sub_test_failed $end
$var reg 1 . xor_test_failed $end
$scope module Comp $end
$var wire 1 % clk $end
$var wire 8 / write_bus [7:0] $end
$var wire 8 0 regB_out_bus [7:0] $end
$var wire 8 1 regA_out_bus [7:0] $end
$var wire 7 2 pc_out_bus [6:0] $end
$var wire 7 3 opcode [6:0] $end
$var wire 8 4 literal [7:0] $end
$var wire 15 5 im_out_bus [14:0] $end
$var wire 8 6 b_src [7:0] $end
$var wire 8 7 alu_out_bus [7:0] $end
$var wire 8 8 alu_b [7:0] $end
$var wire 8 9 alu_a [7:0] $end
$var wire 8 : a_from_src [7:0] $end
$var wire 8 ; a_from_dest [7:0] $end
$var reg 3 < alu_s [2:0] $end
$var reg 1 = dst_is_A $end
$var reg 1 > loadA $end
$var reg 1 ? loadB $end
$var reg 1 @ src_is_A $end
$var reg 1 A src_is_lit $end
$var reg 1 B use_const1 $end
$var reg 1 C use_src_as_a $end
$var reg 2 D wb_sel [1:0] $end
$scope module ALU $end
$var wire 8 E a [7:0] $end
$var wire 8 F b [7:0] $end
$var wire 3 G s [2:0] $end
$var reg 8 H out [7:0] $end
$upscope $end
$scope module IM $end
$var wire 15 I out [14:0] $end
$var wire 7 J address [6:0] $end
$upscope $end
$scope module PC $end
$var wire 1 % clk $end
$var reg 7 K pc [6:0] $end
$upscope $end
$scope module regA $end
$var wire 1 % clk $end
$var wire 8 L data [7:0] $end
$var wire 1 > load $end
$var reg 8 M out [7:0] $end
$upscope $end
$scope module regB $end
$var wire 1 % clk $end
$var wire 8 N data [7:0] $end
$var wire 1 ? load $end
$var reg 8 O out [7:0] $end
$upscope $end
$upscope $end
$upscope $end
$enddefinitions $end
$comment Show the parameter values. $end
$dumpall
$end
#0
$dumpvars
b0 O
b101010 N
b0 M
b101010 L
b0 K
b0 J
b1000101010 I
b0 H
b0 G
b0 F
b0 E
b1 D
0C
0B
0A
0@
0?
1>
1=
b0 <
b0 ;
b0 :
b0 9
b0 8
b0 7
b0 6
b1000101010 5
b101010 4
b10 3
b0 2
b0 1
b0 0
b101010 /
0.
0-
0,
0+
0*
0)
0(
0'
0&
0%
0$
0#
b0 "
b0 !
$end
#1
b0 7
b0 H
b1111011 /
b1111011 L
b1111011 N
1?
0=
b1 D
0>
b0 9
b0 E
b1111011 4
b11 3
b0 ;
b1101111011 5
b1101111011 I
b1 2
b1 J
b1 K
b101010 !
b101010 1
b101010 M
1%
#2
0%
#3
b1111011 8
b1111011 F
b11110110 7
b11110110 H
b1111011 6
b1111011 9
b1111011 E
b1010101 /
b1010101 L
b1010101 N
b1111011 :
b1111011 ;
b1010101 4
b1111011 "
b1111011 0
b1111011 O
b1101010101 5
b1101010101 I
b10 2
b10 J
b10 K
1%
#4
0%
#5
b1010101 8
b1010101 F
b1111111 7
b1111111 H
b10101010 /
b10101010 L
b10101010 N
1>
b1 D
1=
0?
b1010101 6
b101010 9
b101010 E
b10101010 4
b10 3
b1010101 :
b101010 ;
b1010101010 5
b1010101010 I
b11 2
b11 J
b11 K
b1010101 "
b1010101 0
b1010101 O
1%
#6
0%
#7
b11111111 7
b11111111 H
b10101010 9
b10101010 E
b1010101 /
b1010101 L
b1010101 N
b11 D
1>
b10101010 ;
b0 4
b0 3
b10101010 !
b10101010 1
b10101010 M
b0 5
b0 I
b100 2
b100 J
b100 K
1%
#8
0%
#9
b1100011 /
b1100011 L
b1100011 N
b10101010 7
b10101010 H
b1 D
1>
b1010101 9
b1010101 E
b1100011 4
b10 3
b1010101 ;
b1001100011 5
b1001100011 I
b101 2
b101 J
b101 K
b1010101 !
b1010101 1
b1010101 M
1%
#10
0%
#11
b10101010 7
b10101010 H
b1010101 9
b1010101 E
b1100011 /
b1100011 L
b1100011 N
1?
0=
b10 D
0>
b1010101 ;
b0 4
b1 3
b1100011 !
b1100011 1
b1100011 M
b100000000 5
b100000000 I
b110 2
b110 J
b110 K
1%
#12
0%
#13
b10 /
b10 L
b10 N
b1100011 8
b1100011 F
b11000110 7
b11000110 H
1>
b1 D
1=
0?
b1100011 6
b1100011 9
b1100011 E
b10 4
b10 3
b1100011 :
b1100011 ;
b1000000010 5
b1000000010 I
b111 2
b111 J
b111 K
b1100011 "
b1100011 0
b1100011 O
1%
#14
0%
#15
b11000110 7
b11000110 H
b1100011 9
b1100011 E
b11 /
b11 L
b11 N
1?
0=
b1 D
0>
b1100011 ;
b11 4
b11 3
b10 !
b10 1
b10 M
b1100000011 5
b1100000011 I
b1000 2
b1000 J
b1000 K
1%
#16
0%
#17
b11 8
b11 F
b101 7
b101 H
b101 /
b101 L
b101 N
1>
b0 D
1=
0?
b11 6
b10 9
b10 E
b0 4
b100 3
b11 :
b10 ;
b10000000000 5
b10000000000 I
b1001 2
b1001 J
b1001 K
b11 "
b11 0
b11 O
1%
#18
0%
#19
b1111 /
b1111 L
b1111 N
b1010 8
b1010 F
b1111 7
b1111 H
b1010 6
b101 9
b101 E
1A
1>
b101 ;
b1010 4
b110 3
b101 !
b101 1
b101 M
b11000001010 5
b11000001010 I
b1010 2
b1010 J
b1010 K
1%
#20
0%
#21
b10111 /
b10111 L
b10111 N
b10100 8
b10100 F
b10111 7
b10111 H
b10100 6
1?
0=
1A
0>
b11 9
b11 E
b10100 4
b111 3
b11 ;
b11100010100 5
b11100010100 I
b1011 2
b1011 J
b1011 K
b1111 !
b1111 1
b1111 M
1%
#22
0%
#23
b10111 8
b10111 F
b100110 7
b100110 H
b10100 /
b10100 L
b10100 N
b10111 6
b1111 9
b1111 E
b1 D
1>
0A
1=
0?
b10111 :
b1111 ;
b10 3
b10111 "
b10111 0
b10111 O
b1000010100 5
b1000010100 I
b1100 2
b1100 J
b1100 K
1%
#24
0%
#25
b101110 7
b101110 H
b101 /
b101 L
b101 N
1?
0=
b1 D
0>
b10111 9
b10111 E
b101 4
b11 3
b10111 ;
b1100000101 5
b1100000101 I
b1101 2
b1101 J
b1101 K
b10100 !
b10100 1
b10100 M
1%
#26
0%
#27
b101 8
b101 F
b1111 7
b1111 H
b101 6
b10100 9
b10100 E
b1111 /
b1111 L
b1111 N
b1 <
b1 G
1>
b0 D
1=
0?
b101 :
b10100 ;
b0 4
b1000 3
b101 "
b101 0
b101 O
b100000000000 5
b100000000000 I
b1110 2
b1110 J
b1110 K
1%
#28
0%
#29
b11110110 /
b11110110 L
b11110110 N
b1111 8
b1111 F
b1111 6
b1111 :
b11110110 7
b11110110 H
1@
1?
0=
b1 <
b1 G
0>
b101 9
b101 E
b1001 3
b101 ;
b100100000000 5
b100100000000 I
b1111 2
b1111 J
b1111 K
b1111 !
b1111 1
b1111 M
1%
#30
0%
#31
b1000 /
b1000 L
b1000 N
b111 8
b111 F
b111 6
b1000 7
b1000 H
b11110110 :
b1111 9
b1111 E
1A
1>
b1 <
b1 G
0@
1=
0?
b1111 ;
b111 4
b1010 3
b11110110 "
b11110110 0
b11110110 O
b101000000111 5
b101000000111 I
b10000 2
b10000 J
b10000 K
1%
#32
0%
#33
b11101100 /
b11101100 L
b11101100 N
b1010 8
b1010 F
b11101100 7
b11101100 H
b1010 6
1?
0=
b1 <
b1 G
1A
0>
b11110110 9
b11110110 E
b1010 4
b1011 3
b11110110 ;
b101100001010 5
b101100001010 I
b10001 2
b10001 J
b10001 K
b1000 !
b1000 1
b1000 M
1%
1-
#34
0%
#35
b11101100 8
b11101100 F
b11001010 /
b11001010 L
b11001010 N
b11110100 7
b11110100 H
b1000 9
b1000 E
b11101100 6
b1 D
1>
b0 <
b0 G
0A
1=
0?
b11101100 :
b1000 ;
b11001010 4
b10 3
b11101100 "
b11101100 0
b11101100 O
b1011001010 5
b1011001010 I
b10010 2
b10010 J
b10010 K
1%
#36
0%
#37
b11011000 7
b11011000 H
b10101110 /
b10101110 L
b10101110 N
1?
0=
b1 D
0>
b11101100 9
b11101100 E
b10101110 4
b11 3
b11101100 ;
b1110101110 5
b1110101110 I
b10011 2
b10011 J
b10011 K
b11001010 !
b11001010 1
b11001010 M
1%
#38
0%
#39
b10101110 8
b10101110 F
b10001010 7
b10001010 H
b10101110 6
b11001010 9
b11001010 E
b10001010 /
b10001010 L
b10001010 N
b10 <
b10 G
1>
b0 D
1=
0?
b10101110 :
b11001010 ;
b0 4
b1100 3
b10101110 "
b10101110 0
b10101110 O
b110000000000 5
b110000000000 I
b10100 2
b10100 J
b10100 K
1%
#40
0%
#41
b10001010 /
b10001010 L
b10001010 N
b10001010 8
b10001010 F
b10001010 7
b10001010 H
b10001010 6
b10001010 :
1@
1?
0=
b10 <
b10 G
0>
b10101110 9
b10101110 E
b1101 3
b10101110 ;
b110100000000 5
b110100000000 I
b10101 2
b10101 J
b10101 K
b10001010 !
b10001010 1
b10001010 M
1%
#42
0%
#43
b11110000 /
b11110000 L
b11110000 N
b10100 7
b10100 H
b10001010 9
b10001010 E
b1 D
1>
b0 <
b0 G
0@
1=
0?
b10001010 ;
b11110000 4
b10 3
b10001010 "
b10001010 0
b10001010 O
b1011110000 5
b1011110000 I
b10110 2
b10110 J
b10110 K
1%
#44
0%
#45
b1010101 8
b1010101 F
b1010101 6
b1010000 7
b1010000 H
b1010000 /
b1010000 L
b1010000 N
b10 <
b10 G
1A
b0 D
1>
b11110000 9
b11110000 E
b1010101 4
b1110 3
b11110000 ;
b111001010101 5
b111001010101 I
b10111 2
b10111 J
b10111 K
b11110000 !
b11110000 1
b11110000 M
1%
#46
0%
#47
b10001010 8
b10001010 F
b11001100 /
b11001100 L
b11001100 N
b10100 7
b10100 H
b10001010 9
b10001010 E
b10001010 6
b1 D
1?
0=
b0 <
b0 G
0A
0>
b10001010 ;
b11001100 4
b11 3
b1010000 !
b1010000 1
b1010000 M
b1111001100 5
b1111001100 I
b11000 2
b11000 J
b11000 K
1%
#48
0%
#49
b10101010 8
b10101010 F
b10001000 7
b10001000 H
b10001000 /
b10001000 L
b10001000 N
b10 <
b10 G
1A
b0 D
0=
1?
b10101010 6
b11001100 9
b11001100 E
b10101010 4
b1111 3
b11001100 :
b11001100 ;
b111110101010 5
b111110101010 I
b11001 2
b11001 J
b11001 K
b11001100 "
b11001100 0
b11001100 O
1%
#50
0%
#51
b10001000 8
b10001000 F
b11001010 /
b11001010 L
b11001010 N
b11011000 7
b11011000 H
b1010000 9
b1010000 E
b10001000 6
b1 D
1>
b0 <
b0 G
0A
1=
0?
b10001000 :
b1010000 ;
b11001010 4
b10 3
b10001000 "
b10001000 0
b10001000 O
b1011001010 5
b1011001010 I
b11010 2
b11010 J
b11010 K
1%
#52
0%
#53
b10000 7
b10000 H
b10101110 /
b10101110 L
b10101110 N
1?
0=
b1 D
0>
b10001000 9
b10001000 E
b10101110 4
b11 3
b10001000 ;
b1110101110 5
b1110101110 I
b11011 2
b11011 J
b11011 K
b11001010 !
b11001010 1
b11001010 M
1%
#54
0%
#55
b10101110 8
b10101110 F
b11101110 7
b11101110 H
b10101110 6
b11001010 9
b11001010 E
b11101110 /
b11101110 L
b11101110 N
b11 <
b11 G
1>
b0 D
1=
0?
b10101110 :
b11001010 ;
b0 4
b10000 3
b10101110 "
b10101110 0
b10101110 O
b1000000000000 5
b1000000000000 I
b11100 2
b11100 J
b11100 K
1%
#56
0%
#57
b11101110 /
b11101110 L
b11101110 N
b11101110 8
b11101110 F
b11101110 7
b11101110 H
b11101110 6
b11101110 :
1@
1?
0=
b11 <
b11 G
0>
b10101110 9
b10101110 E
b10001 3
b10101110 ;
b1000100000000 5
b1000100000000 I
b11101 2
b11101 J
b11101 K
b11101110 !
b11101110 1
b11101110 M
1%
#58
0%
#59
b110011 /
b110011 L
b110011 N
b11011100 7
b11011100 H
b11101110 9
b11101110 E
b1 D
1>
b0 <
b0 G
0@
1=
0?
b11101110 ;
b110011 4
b10 3
b11101110 "
b11101110 0
b11101110 O
b1000110011 5
b1000110011 I
b11110 2
b11110 J
b11110 K
1%
#60
0%
#61
b11110000 8
b11110000 F
b11110000 6
b11110011 7
b11110011 H
b11110011 /
b11110011 L
b11110011 N
b11 <
b11 G
1A
b0 D
1>
b110011 9
b110011 E
b11110000 4
b10010 3
b110011 ;
b1001011110000 5
b1001011110000 I
b11111 2
b11111 J
b11111 K
b110011 !
b110011 1
b110011 M
1%
#62
0%
#63
b11101110 8
b11101110 F
b10100101 /
b10100101 L
b10100101 N
b11011100 7
b11011100 H
b11101110 9
b11101110 E
b11101110 6
b1 D
1?
0=
b0 <
b0 G
0A
0>
b11101110 ;
b10100101 4
b11 3
b11110011 !
b11110011 1
b11110011 M
b1110100101 5
b1110100101 I
b100000 2
b100000 J
b100000 K
1%
#64
0%
#65
b1011010 8
b1011010 F
b11111111 7
b11111111 H
b11111111 /
b11111111 L
b11111111 N
b11 <
b11 G
1A
b0 D
0=
1?
b1011010 6
b10100101 9
b10100101 E
b1011010 4
b10011 3
b10100101 :
b10100101 ;
b1001101011010 5
b1001101011010 I
b100001 2
b100001 J
b100001 K
b10100101 "
b10100101 0
b10100101 O
1%
#66
0%
#67
b11111111 8
b11111111 F
b10101010 /
b10101010 L
b10101010 N
b11110010 7
b11110010 H
b11110011 9
b11110011 E
b11111111 6
b1 D
1>
b0 <
b0 G
0A
1=
0?
b11111111 :
b11110011 ;
b10101010 4
b10 3
b11111111 "
b11111111 0
b11111111 O
b1010101010 5
b1010101010 I
b100010 2
b100010 J
b100010 K
1%
#68
0%
#69
b10101010 8
b10101010 F
b10101010 6
b10101010 :
b1010101 7
b1010101 H
b1010101 /
b1010101 L
b1010101 N
b101 <
b101 G
1C
1@
b0 D
1>
b10101010 9
b10101010 E
b0 4
b10100 3
b10101010 ;
b1010000000000 5
b1010000000000 I
b100011 2
b100011 J
b100011 K
b10101010 !
b10101010 1
b10101010 M
1%
#70
0%
#71
b11111111 8
b11111111 F
b11001100 /
b11001100 L
b11001100 N
b11111110 7
b11111110 H
b11111111 6
b11111111 9
b11111111 E
b1 D
1?
0=
b0 <
b0 G
0C
0@
0>
b11111111 :
b11111111 ;
b11001100 4
b11 3
b1010101 !
b1010101 1
b1010101 M
b1111001100 5
b1111001100 I
b100100 2
b100100 J
b100100 K
1%
#72
0%
#73
b11001100 8
b11001100 F
b110011 7
b110011 H
b110011 /
b110011 L
b110011 N
b101 <
b101 G
1C
b0 D
0=
1?
b11001100 6
b11001100 9
b11001100 E
b0 4
b10111 3
b11001100 :
b11001100 ;
b1011100000000 5
b1011100000000 I
b100101 2
b100101 J
b100101 K
b11001100 "
b11001100 0
b11001100 O
1%
#74
0%
#75
b110011 8
b110011 F
b11111111 /
b11111111 L
b11111111 N
b10001000 7
b10001000 H
b110011 6
b1010101 9
b1010101 E
b1 D
1>
b0 <
b0 G
0C
1=
0?
b110011 :
b1010101 ;
b11111111 4
b10 3
b110011 "
b110011 0
b110011 O
b1011111111 5
b1011111111 I
b100110 2
b100110 J
b100110 K
1%
#76
0%
#77
b1100110 7
b1100110 H
b11110000 /
b11110000 L
b11110000 N
1?
0=
b1 D
0>
b110011 9
b110011 E
b11110000 4
b11 3
b110011 ;
b1111110000 5
b1111110000 I
b100111 2
b100111 J
b100111 K
b11111111 !
b11111111 1
b11111111 M
1%
#78
0%
#79
b11110000 8
b11110000 F
b1111 7
b1111 H
b11110000 6
b11110000 9
b11110000 E
b1111 /
b1111 L
b1111 N
b101 <
b101 G
1C
1>
b0 D
1=
0?
b11110000 :
b11111111 ;
b0 4
b10101 3
b11110000 "
b11110000 0
b11110000 O
b1010100000000 5
b1010100000000 I
b101000 2
b101000 J
b101000 K
1%
#80
0%
#81
b11111111 7
b11111111 H
b1111 9
b1111 E
b1 D
b0 <
b0 G
0C
1>
b1111 4
b10 3
b1111 ;
b1000001111 5
b1000001111 I
b101001 2
b101001 J
b101001 K
b1111 !
b1111 1
b1111 M
1%
#82
0%
#83
b11100000 7
b11100000 H
b11110000 9
b11110000 E
b11110000 ;
b11111111 /
b11111111 L
b11111111 N
1?
0=
b1 D
0>
b11111111 4
b11 3
b1111111111 5
b1111111111 I
b101010 2
b101010 J
b101010 K
1%
#84
0%
#85
b1111 8
b1111 F
b11110000 7
b11110000 H
b11110000 /
b11110000 L
b11110000 N
b101 <
b101 G
1C
1@
b0 D
0=
1?
b1111 6
b1111 9
b1111 E
b0 4
b10110 3
b1111 :
b11111111 ;
b1011000000000 5
b1011000000000 I
b101011 2
b101011 J
b101011 K
b11111111 "
b11111111 0
b11111111 O
1%
#86
0%
#87
b11110000 8
b11110000 F
b11110000 6
b11001010 /
b11001010 L
b11001010 N
b11111111 7
b11111111 H
b11110000 :
b1 D
1>
b0 <
b0 G
0C
0@
1=
0?
b1111 ;
b11001010 4
b10 3
b11110000 "
b11110000 0
b11110000 O
b1011001010 5
b1011001010 I
b101100 2
b101100 J
b101100 K
1%
#88
0%
#89
b11100000 7
b11100000 H
b10101110 /
b10101110 L
b10101110 N
1?
0=
b1 D
0>
b11110000 9
b11110000 E
b10101110 4
b11 3
b11110000 ;
b1110101110 5
b1110101110 I
b101101 2
b101101 J
b101101 K
b11001010 !
b11001010 1
b11001010 M
1%
#90
0%
#91
b10101110 8
b10101110 F
b1100100 7
b1100100 H
b10101110 6
b11001010 9
b11001010 E
b1100100 /
b1100100 L
b1100100 N
b100 <
b100 G
1>
b0 D
1=
0?
b10101110 :
b11001010 ;
b0 4
b11000 3
b10101110 "
b10101110 0
b10101110 O
b1100000000000 5
b1100000000000 I
b101110 2
b101110 J
b101110 K
1%
#92
0%
#93
b11001010 /
b11001010 L
b11001010 N
b11001010 7
b11001010 H
b1100100 9
b1100100 E
b1100100 ;
b101111 2
b101111 J
b101111 K
b1100100 !
b1100100 1
b1100100 M
1%
#94
0%
#95
b11110000 /
b11110000 L
b11110000 N
b1111000 7
b1111000 H
b11001010 9
b11001010 E
b1 D
b0 <
b0 G
1>
b11001010 ;
b11110000 4
b10 3
b11001010 !
b11001010 1
b11001010 M
b1011110000 5
b1011110000 I
b110000 2
b110000 J
b110000 K
1%
#96
0%
#97
b1011100 7
b1011100 H
b10101010 /
b10101010 L
b10101010 N
1?
0=
b1 D
0>
b10101110 9
b10101110 E
b10101010 4
b11 3
b10101110 ;
b1110101010 5
b1110101010 I
b110001 2
b110001 J
b110001 K
b11110000 !
b11110000 1
b11110000 M
1%
#98
0%
#99
b11110000 8
b11110000 F
b1011010 7
b1011010 H
b11110000 6
b10101010 9
b10101010 E
b1011010 /
b1011010 L
b1011010 N
b100 <
b100 G
1@
b0 D
0=
1?
b11110000 :
b10101010 ;
b0 4
b11001 3
b10101010 "
b10101010 0
b10101010 O
b1100100000000 5
b1100100000000 I
b110010 2
b110010 J
b110010 K
1%
#100
0%
#101
b1011010 8
b1011010 F
b1011010 6
b111100 /
b111100 L
b111100 N
b1011010 :
b1001010 7
b1001010 H
b1 D
1>
b0 <
b0 G
0@
1=
0?
b11110000 9
b11110000 E
b111100 4
b10 3
b11110000 ;
b1000111100 5
b1000111100 I
b110011 2
b110011 J
b110011 K
b1011010 "
b1011010 0
b1011010 O
1%
#102
0%
#103
b11111111 8
b11111111 F
b11000011 7
b11000011 H
b11111111 6
b111100 9
b111100 E
b11000011 /
b11000011 L
b11000011 N
b100 <
b100 G
1A
b0 D
1>
b111100 ;
b11111111 4
b11010 3
b111100 !
b111100 1
b111100 M
b1101011111111 5
b1101011111111 I
b110100 2
b110100 J
b110100 K
1%
#104
0%
#105
b1011010 8
b1011010 F
b10010010 /
b10010010 L
b10010010 N
b10110100 7
b10110100 H
b1011010 6
b1 D
1?
0=
b0 <
b0 G
0A
0>
b1011010 9
b1011010 E
b10010010 4
b11 3
b1011010 ;
b1110010010 5
b1110010010 I
b110101 2
b110101 J
b110101 K
b11000011 !
b11000011 1
b11000011 M
1%
#106
0%
#107
b1100110 8
b1100110 F
b11110100 7
b11110100 H
b1100110 6
b10010010 9
b10010010 E
b11110100 /
b11110100 L
b11110100 N
b100 <
b100 G
1A
b0 D
0=
1?
b10010010 :
b10010010 ;
b1100110 4
b11011 3
b10010010 "
b10010010 0
b10010010 O
b1101101100110 5
b1101101100110 I
b110110 2
b110110 J
b110110 K
1%
#108
0%
#109
b11110100 8
b11110100 F
b101 /
b101 L
b101 N
b10110111 7
b10110111 H
b11110100 6
b1 D
1>
b0 <
b0 G
0A
1=
0?
b11000011 9
b11000011 E
b101 4
b10 3
b11110100 :
b11000011 ;
b1000000101 5
b1000000101 I
b110111 2
b110111 J
b110111 K
b11110100 "
b11110100 0
b11110100 O
1%
#110
0%
#111
b101 8
b101 F
b101 6
b1010 7
b1010 H
b101 :
b101 9
b101 E
b1010 /
b1010 L
b1010 N
b110 <
b110 G
1C
1@
b0 D
1>
b101 ;
b0 4
b11100 3
b101 !
b101 1
b101 M
b1110000000000 5
b1110000000000 I
b111000 2
b111000 J
b111000 K
1%
#112
0%
#113
b1100 /
b1100 L
b1100 N
b11110100 8
b11110100 F
b11101000 7
b11101000 H
b1 D
1?
0=
b0 <
b0 G
0C
0@
0>
b11110100 6
b11110100 9
b11110100 E
b1100 4
b11 3
b11110100 :
b11110100 ;
b1100001100 5
b1100001100 I
b111001 2
b111001 J
b111001 K
b1010 !
b1010 1
b1010 M
1%
#114
0%
#115
b1100 8
b1100 F
b11000 7
b11000 H
b1100 6
b1100 9
b1100 E
b11000 /
b11000 L
b11000 N
b110 <
b110 G
1C
b0 D
0=
1?
b1100 :
b1100 ;
b0 4
b11111 3
b1100 "
b1100 0
b1100 O
b1111100000000 5
b1111100000000 I
b111010 2
b111010 J
b111010 K
1%
#116
0%
#117
b1100011 /
b1100011 L
b1100011 N
b11000 8
b11000 F
b100010 7
b100010 H
b1 D
1>
b0 <
b0 G
0C
1=
0?
b11000 6
b1010 9
b1010 E
b1100011 4
b10 3
b11000 :
b1010 ;
b1001100011 5
b1001100011 I
b111011 2
b111011 J
b111011 K
b11000 "
b11000 0
b11000 O
1%
#118
0%
#119
b110000 7
b110000 H
b11000 9
b11000 E
b10101 /
b10101 L
b10101 N
1?
0=
b1 D
0>
b11000 ;
b10101 4
b11 3
b1100011 !
b1100011 1
b1100011 M
b1100010101 5
b1100010101 I
b111100 2
b111100 J
b111100 K
1%
#120
0%
#121
b10101 8
b10101 F
b101010 7
b101010 H
b101010 /
b101010 L
b101010 N
b110 <
b110 G
1C
1>
b0 D
1=
0?
b10101 6
b10101 9
b10101 E
b0 4
b11101 3
b10101 :
b1100011 ;
b1110100000000 5
b1110100000000 I
b111101 2
b111101 J
b111101 K
b10101 "
b10101 0
b10101 O
1%
#122
0%
#123
b1011000 /
b1011000 L
b1011000 N
b101010 7
b101010 H
b10101 9
b10101 E
b1 D
1?
0=
b0 <
b0 G
0C
0>
b10101 ;
b1011000 4
b11 3
b101010 !
b101010 1
b101010 M
b1101011000 5
b1101011000 I
b111110 2
b111110 J
b111110 K
1%
#124
0%
#125
b1011000 8
b1011000 F
b10000010 7
b10000010 H
b11110 /
b11110 L
b11110 N
1>
b1 D
1=
0?
b1011000 6
b101010 9
b101010 E
b11110 4
b10 3
b1011000 :
b101010 ;
b1000011110 5
b1000011110 I
b111111 2
b111111 J
b111111 K
b1011000 "
b1011000 0
b1011000 O
1%
#126
0%
#127
b11110 8
b11110 F
b11110 6
b111100 7
b111100 H
b11110 :
b11110 9
b11110 E
b111100 /
b111100 L
b111100 N
b110 <
b110 G
1C
1@
1?
0=
b0 D
0>
b1011000 ;
b0 4
b11110 3
b11110 !
b11110 1
b11110 M
b1111000000000 5
b1111000000000 I
b1000000 2
b1000000 J
b1000000 K
1%
#128
0%
#129
b111100 8
b111100 F
b111100 6
b0 /
b0 L
b0 N
b1111000 7
b1111000 H
b111100 9
b111100 E
b111100 :
b1 D
b0 <
b0 G
0C
0@
0=
1?
b11 3
b111100 ;
b1100000000 5
b1100000000 I
b1000001 2
b1000001 J
b1000001 K
b111100 "
b111100 0
b111100 O
1%
#130
0%
#131
b0 8
b0 F
b11110 7
b11110 H
b0 6
b11110 9
b11110 E
b11000000 /
b11000000 L
b11000000 N
1>
b1 D
1=
0?
b0 :
b11110 ;
b11000000 4
b10 3
b0 "
b0 0
b0 O
b1011000000 5
b1011000000 I
b1000010 2
b1000010 J
b1000010 K
1%
#132
0%
#133
b11000000 8
b11000000 F
b11000000 6
b11000000 :
b10000000 7
b10000000 H
b10000000 /
b10000000 L
b10000000 N
b110 <
b110 G
1C
1@
1?
0=
b0 D
0>
b11000000 9
b11000000 E
b0 4
b11110 3
b0 ;
b1111000000000 5
b1111000000000 I
b1000011 2
b1000011 J
b1000011 K
b11000000 !
b11000000 1
b11000000 M
1%
#134
0%
#135
b1000000 7
b1000000 H
b10000000 8
b10000000 F
b10000000 6
b1010 /
b1010 L
b1010 N
b10000000 :
b1 D
1>
b0 <
b0 G
0C
0@
1=
0?
b11000000 ;
b1010 4
b10 3
b10000000 "
b10000000 0
b10000000 O
b1000001010 5
b1000001010 I
b1000100 2
b1000100 J
b1000100 K
1%
#136
0%
#137
b1010 8
b1010 F
b1010 6
b1010 :
b101 7
b101 H
b101 /
b101 L
b101 N
b111 <
b111 G
1C
1@
b0 D
1>
b1010 9
b1010 E
b0 4
b100000 3
b1010 ;
b10000000000000 5
b10000000000000 I
b1000101 2
b1000101 J
b1000101 K
b1010 !
b1010 1
b1010 M
1%
#138
0%
#139
b10000000 8
b10000000 F
b11000 /
b11000 L
b11000 N
b0 7
b0 H
b10000000 6
b10000000 9
b10000000 E
b1 D
1?
0=
b0 <
b0 G
0C
0@
0>
b10000000 :
b10000000 ;
b11000 4
b11 3
b101 !
b101 1
b101 M
b1100011000 5
b1100011000 I
b1000110 2
b1000110 J
b1000110 K
1%
#140
0%
#141
b11000 8
b11000 F
b1100 7
b1100 H
b1100 /
b1100 L
b1100 N
b111 <
b111 G
1C
b0 D
0=
1?
b11000 6
b11000 9
b11000 E
b0 4
b100011 3
b11000 :
b11000 ;
b10001100000000 5
b10001100000000 I
b1000111 2
b1000111 J
b1000111 K
b11000 "
b11000 0
b11000 O
1%
#142
0%
#143
b1100 8
b1100 F
b1100011 /
b1100011 L
b1100011 N
b10001 7
b10001 H
b1100 6
b101 9
b101 E
b1 D
1>
b0 <
b0 G
0C
1=
0?
b1100 :
b101 ;
b1100011 4
b10 3
b1100 "
b1100 0
b1100 O
b1001100011 5
b1001100011 I
b1001000 2
b1001000 J
b1001000 K
1%
#144
0%
#145
b11000 7
b11000 H
b101010 /
b101010 L
b101010 N
1?
0=
b1 D
0>
b1100 9
b1100 E
b101010 4
b11 3
b1100 ;
b1100101010 5
b1100101010 I
b1001001 2
b1001001 J
b1001001 K
b1100011 !
b1100011 1
b1100011 M
1%
#146
0%
#147
b101010 8
b101010 F
b10101 7
b10101 H
b101010 6
b101010 9
b101010 E
b10101 /
b10101 L
b10101 N
b111 <
b111 G
1C
1>
b0 D
1=
0?
b101010 :
b1100011 ;
b0 4
b100001 3
b101010 "
b101010 0
b101010 O
b10000100000000 5
b10000100000000 I
b1001010 2
b1001010 J
b1001010 K
1%
#148
0%
#149
b1011000 /
b1011000 L
b1011000 N
b1010100 7
b1010100 H
b101010 9
b101010 E
b1 D
1?
0=
b0 <
b0 G
0C
0>
b1011000 4
b11 3
b101010 ;
b1101011000 5
b1101011000 I
b1001011 2
b1001011 J
b1001011 K
b10101 !
b10101 1
b10101 M
1%
#150
0%
#151
b1011000 8
b1011000 F
b1101101 7
b1101101 H
b1011000 6
b10101 9
b10101 E
b111100 /
b111100 L
b111100 N
1>
b1 D
1=
0?
b1011000 :
b10101 ;
b111100 4
b10 3
b1011000 "
b1011000 0
b1011000 O
b1000111100 5
b1000111100 I
b1001100 2
b1001100 J
b1001100 K
1%
#152
0%
#153
b111100 8
b111100 F
b111100 6
b111100 :
b11110 7
b11110 H
b11110 /
b11110 L
b11110 N
b111 <
b111 G
1C
1@
1?
0=
b0 D
0>
b111100 9
b111100 E
b0 4
b100010 3
b1011000 ;
b10001000000000 5
b10001000000000 I
b1001101 2
b1001101 J
b1001101 K
b111100 !
b111100 1
b111100 M
1%
#154
0%
#155
b11110 8
b11110 F
b11110 6
b0 /
b0 L
b0 N
b111100 7
b111100 H
b11110 9
b11110 E
b11110 :
b1 D
b0 <
b0 G
0C
0@
0=
1?
b11110 ;
b11 3
b11110 "
b11110 0
b11110 O
b1100000000 5
b1100000000 I
b1001110 2
b1001110 J
b1001110 K
1%
#156
0%
#157
b0 8
b0 F
b111100 7
b111100 H
b1101 /
b1101 L
b1101 N
1>
b1 D
1=
0?
b0 6
b111100 9
b111100 E
b1101 4
b10 3
b0 :
b111100 ;
b1000001101 5
b1000001101 I
b1001111 2
b1001111 J
b1001111 K
b0 "
b0 0
b0 O
1%
#158
0%
#159
b1101 8
b1101 F
b1101 6
b110 7
b110 H
b1101 :
b1101 9
b1101 E
b110 /
b110 L
b110 N
b111 <
b111 G
1C
1@
1?
0=
b0 D
0>
b0 ;
b0 4
b100010 3
b1101 !
b1101 1
b1101 M
b10001000000000 5
b10001000000000 I
b1010000 2
b1010000 J
b1010000 K
1%
#160
0%
