out/dump.vcd
$date
	Mon Oct 06 17:25:21 2025
$end
$version
	Icarus Verilog
$end
$timescale
	1s
$end
$scope module test $end
$var wire 8 ! regA_out [7:0] $end
$var wire 8 " regB_out [7:0] $end
$var reg 1 # add_test_failed $end
$var reg 1 $ and_test_failed $end
$var reg 1 % clk $end
$var reg 1 & inc_test_failed $end
$var reg 1 ' mov_test_failed $end
$var reg 1 ( not_test_failed $end
$var reg 1 ) or_test_failed $end
$var reg 1 * reg_mov_test_failed $end
$var reg 1 + shl_test_failed $end
$var reg 1 , shr_test_failed $end
$var reg 1 - sub_test_failed $end
$var reg 1 . xor_test_failed $end
$scope module Comp $end
$var wire 1 % clk $end
$var wire 1 / z_in $end
$var wire 1 0 z $end
$var wire 2 1 wb_sel [1:0] $end
$var wire 8 2 wb_data [7:0] $end
$var wire 1 3 v_in $end
$var wire 1 4 v $end
$var wire 1 5 use_lit $end
$var wire 2 6 src_sel [1:0] $end
$var wire 8 7 regB_out [7:0] $end
$var wire 8 8 regA_out [7:0] $end
$var wire 7 9 pc_out [6:0] $end
$var wire 1 : pc_load $end
$var wire 7 ; opcode [6:0] $end
$var wire 1 < n_in $end
$var wire 1 = n $end
$var wire 1 > mem_write $end
$var wire 1 ? loadB $end
$var wire 1 @ loadA $end
$var wire 8 A literal [7:0] $end
$var wire 15 B im_out [14:0] $end
$var wire 2 C dst_sel [1:0] $end
$var wire 8 D data_out [7:0] $end
$var wire 1 E c_in $end
$var wire 1 F c $end
$var wire 3 G alu_s [2:0] $end
$var wire 8 H alu_out [7:0] $end
$var wire 8 I alu_b [7:0] $end
$var wire 8 J alu_a [7:0] $end
$scope module ALU $end
$var wire 8 K a [7:0] $end
$var wire 8 L b [7:0] $end
$var wire 1 E c $end
$var wire 1 / z $end
$var wire 1 3 v $end
$var wire 3 M s [2:0] $end
$var wire 1 < n $end
$var reg 1 N carry $end
$var reg 8 O out [7:0] $end
$upscope $end
$scope module CU $end
$var wire 7 P opcode [6:0] $end
$var wire 1 0 Z $end
$var wire 1 4 V $end
$var wire 1 = N $end
$var wire 1 F C $end
$var reg 3 Q alu_s [2:0] $end
$var reg 2 R dst_sel [1:0] $end
$var reg 1 @ loadA $end
$var reg 1 ? loadB $end
$var reg 1 > mem_write $end
$var reg 1 : pc_load $end
$var reg 2 S src_sel [1:0] $end
$var reg 1 5 use_lit $end
$var reg 2 T wb_sel [1:0] $end
$upscope $end
$scope module DM $end
$var wire 8 U address [7:0] $end
$var wire 1 % clk $end
$var wire 8 V data_out [7:0] $end
$var wire 1 > write_enable $end
$var wire 8 W data_in [7:0] $end
$upscope $end
$scope module IM $end
$var wire 15 X out [14:0] $end
$var wire 7 Y address [6:0] $end
$upscope $end
$scope module PC $end
$var wire 1 % clk $end
$var wire 1 : load $end
$var wire 7 Z new_value [6:0] $end
$var reg 7 [ pc [6:0] $end
$upscope $end
$scope module SR $end
$var wire 1 E c_in $end
$var wire 1 % clk $end
$var wire 1 < n_in $end
$var wire 1 3 v_in $end
$var wire 1 / z_in $end
$var reg 1 F c $end
$var reg 1 = n $end
$var reg 1 4 v $end
$var reg 1 0 z $end
$upscope $end
$scope module regA $end
$var wire 1 % clk $end
$var wire 8 \ data [7:0] $end
$var wire 1 @ load $end
$var reg 8 ] out [7:0] $end
$upscope $end
$scope module regB $end
$var wire 1 % clk $end
$var wire 8 ^ data [7:0] $end
$var wire 1 ? load $end
$var reg 8 _ out [7:0] $end
$upscope $end
$upscope $end
$upscope $end
$enddefinitions $end
$comment Show the parameter values. $end
$dumpall
$end
#0
$dumpvars
b0 _
b101010 ^
b0 ]
b101010 \
b0 [
b101010 Z
b0 Y
b1000101010 X
b0 W
bx V
b101010 U
b1 T
b0 S
b0 R
b0 Q
b10 P
b0 O
0N
b0 M
b0 L
b0 K
b0 J
b0 I
b0 H
b0 G
0F
0E
bx D
b0 C
b1000101010 B
b101010 A
1@
0?
0>
0=
0<
b10 ;
0:
b0 9
b0 8
b0 7
b0 6
05
04
03
b101010 2
b1 1
00
1/
0.
0-
0,
0+
0*
0)
0(
0'
0&
0%
0$
0#
b0 "
b0 !
$end
#1
1?
b1111011 2
b1111011 \
b1111011 ^
0/
b101010 H
b101010 O
b1111011 A
b1111011 U
b11 ;
b11 P
b1111011 Z
b1 1
b1 T
0@
b101010 J
b101010 K
b1101111011 B
b1101111011 X
b1 9
b1 Y
b1 [
10
b101010 !
b101010 8
b101010 W
b101010 ]
1%
#2
0%
#3
13
1<
b10100101 H
b10100101 O
b1111011 I
b1111011 L
b1010101 2
b1010101 \
b1010101 ^
b1 1
b1 T
1?
b1010101 A
b1010101 U
b1010101 Z
b1111011 "
b1111011 7
b1111011 _
00
b1101010101 B
b1101010101 X
b10 9
b10 Y
b10 [
1%
#4
0%
#5
03
0<
b1111111 H
b1111111 O
b10101010 2
b10101010 \
b10101010 ^
1@
b1 1
b1 T
0?
b1010101 I
b1010101 L
b10101010 A
b10101010 U
b10 ;
b10 P
b101010 Z
b1010101010 B
b1010101010 X
b11 9
b11 Y
b11 [
14
1=
b1010101 "
b1010101 7
b1010101 _
1%
#6
0%
#7
1<
b11111111 H
b11111111 O
b11111111 2
b11111111 \
b11111111 ^
b11 1
b11 T
1@
b10101010 J
b10101010 K
b0 A
b0 U
b0 ;
b0 P
b0 Z
b10101010 !
b10101010 8
b10101010 W
b10101010 ]
04
0=
b0 B
b0 X
b100 9
b100 Y
b100 [
1%
#8
0%
#9
b1100011 2
b1100011 \
b1100011 ^
0<
b1 1
b1 T
1@
b1010100 H
b1010100 O
b1100011 A
b1100011 U
b10 ;
b10 P
b1100011 Z
b11111111 J
b11111111 K
b1001100011 B
b1001100011 X
b101 9
b101 Y
b101 [
1=
b11111111 !
b11111111 8
b11111111 W
b11111111 ]
1%
#10
0%
#11
13
1<
b10111000 H
b10111000 O
bx 2
bx \
bx ^
1?
b10 1
b10 T
0@
b1100011 J
b1100011 K
b0 A
b0 U
b1 ;
b1 P
b0 Z
b1100011 !
b1100011 8
b1100011 W
b1100011 ]
0=
b100000000 B
b100000000 X
b110 9
b110 Y
b110 [
1%
1*
#12
0%
#13
x3
x<
b10 2
b10 \
b10 ^
x/
bx H
bx O
1@
b1 1
b1 T
0?
bx I
bx L
b10 A
b10 U
b10 ;
b10 P
b10 Z
b1000000010 B
b1000000010 X
b111 9
b111 Y
b111 [
14
1=
bx "
bx 7
bx _
1%
#14
0%
#15
b11 2
b11 \
b11 ^
b10 J
b10 K
1?
b1 1
b1 T
0@
b11 A
b11 U
b11 ;
b11 P
b11 Z
b10 !
b10 8
b10 W
b10 ]
x4
x=
x0
b1100000011 B
b1100000011 X
b1000 9
b1000 Y
b1000 [
1%
#16
0%
#17
03
0<
0/
b101 H
b101 O
b101 2
b101 \
b101 ^
1@
b0 1
b0 T
0?
b11 I
b11 L
b0 A
b0 U
b100 ;
b100 P
b0 Z
b10000000000 B
b10000000000 X
b1001 9
b1001 Y
b1001 [
b11 "
b11 7
b11 _
1%
#18
0%
#19
b1111 2
b1111 \
b1111 ^
b1111 H
b1111 O
b1010 I
b1010 L
b101 J
b101 K
15
1@
b1010 A
b1010 U
b110 ;
b110 P
b1010 Z
b101 !
b101 8
b101 W
b101 ]
04
0=
00
b11000001010 B
b11000001010 X
b1010 9
b1010 Y
b1010 [
1%
#20
0%
#21
b100011 2
b100011 \
b100011 ^
b10100 I
b10100 L
1?
15
0@
b100011 H
b100011 O
b10100 A
b10100 U
b111 ;
b111 P
b10100 Z
b1111 J
b1111 K
b11100010100 B
b11100010100 X
b1011 9
b1011 Y
b1011 [
b1111 !
b1111 8
b1111 W
b1111 ]
1%
#22
0%
#23
b110010 H
b110010 O
b10100 2
b10100 \
b10100 ^
b100011 I
b100011 L
b1 1
b1 T
1@
05
0?
b10 ;
b10 P
b100011 "
b100011 7
b100011 _
b1000010100 B
b1000010100 X
b1100 9
b1100 Y
b1100 [
1%
#24
0%
#25
b101 2
b101 \
b101 ^
1?
b1 1
b1 T
0@
b110111 H
b110111 O
b101 A
b101 U
b11 ;
b11 P
b101 Z
b10100 J
b10100 K
b1100000101 B
b1100000101 X
b1101 9
b1101 Y
b1101 [
b10100 !
b10100 8
b10100 W
b10100 ]
1%
1#
#26
0%
#27
b1111 H
b1111 O
b101 I
b101 L
b1111 2
b1111 \
b1111 ^
b1 G
b1 M
b1 Q
1@
b0 1
b0 T
0?
b0 A
b0 U
b1000 ;
b1000 P
b0 Z
b101 "
b101 7
b101 _
b100000000000 B
b100000000000 X
b1110 9
b1110 Y
b1110 [
1%
#28
0%
#29
03
0<
1/
b1111 I
b1111 L
b0 2
b0 \
b0 ^
b1 6
b1 S
1?
b1 G
b1 M
b1 Q
0@
b0 H
b0 O
b1001 ;
b1001 P
b1111 J
b1111 K
b100100000000 B
b100100000000 X
b1111 9
b1111 Y
b1111 [
b1111 !
b1111 8
b1111 W
b1111 ]
1%
#30
0%
#31
b1000 2
b1000 \
b1000 ^
0/
b1000 H
b1000 O
b111 I
b111 L
15
1@
b0 6
b0 S
b1 G
b1 M
b1 Q
0?
b111 A
b111 U
b1010 ;
b1010 P
b111 Z
b0 "
b0 7
b0 _
10
b101000000111 B
b101000000111 X
b10000 9
b10000 Y
b10000 [
1%
#32
0%
#33
b1000 2
b1000 \
b1000 ^
b0 I
b0 L
b1000 H
b1000 O
b1010 A
b1010 U
b1011 ;
b1011 P
b1010 Z
05
b0 G
b0 M
b0 Q
0@
b1000 J
b1000 K
b101100001010 B
b101100001010 X
b10001 9
b10001 Y
b10001 [
00
b1000 !
b1000 8
b1000 W
b1000 ]
1%
1-
#34
0%
#35
b11001010 2
b11001010 \
b11001010 ^
b1 1
b1 T
1@
b11001010 A
b11001010 U
b10 ;
b10 P
b1001010 Z
b1011001010 B
b1011001010 X
b10010 9
b10010 Y
b10010 [
1%
#36
0%
#37
1<
b10101110 2
b10101110 \
b10101110 ^
1?
b1 1
b1 T
0@
b11001010 H
b11001010 O
b10101110 A
b10101110 U
b11 ;
b11 P
b101110 Z
b11001010 J
b11001010 K
b1110101110 B
b1110101110 X
b10011 9
b10011 Y
b10011 [
b11001010 !
b11001010 8
b11001010 W
b11001010 ]
1%
#38
0%
#39
13
0<
b1111000 H
b1111000 O
b10101110 I
b10101110 L
b1111000 2
b1111000 \
b1111000 ^
b0 1
b0 T
0?
b0 A
b0 U
b1100 ;
b1100 P
b0 Z
b10101110 "
b10101110 7
b10101110 _
1=
b110000000000 B
b110000000000 X
b10100 9
b10100 Y
b10100 [
1%
#40
0%
#41
b1101 ;
b1101 P
b110100000000 B
b110100000000 X
b10101 9
b10101 Y
b10101 [
14
0=
1%
#42
0%
#43
b11110000 2
b11110000 \
b11110000 ^
b1 1
b1 T
1@
b11110000 A
b11110000 U
b10 ;
b10 P
b1110000 Z
b1011110000 B
b1011110000 X
b10110 9
b10110 Y
b10110 [
1%
1$
#44
0%
#45
03
1<
b10011110 2
b10011110 \
b10011110 ^
b0 1
b0 T
0@
b10011110 H
b10011110 O
b1010101 A
b1010101 U
b1110 ;
b1110 P
b1010101 Z
b11110000 J
b11110000 K
b111001010101 B
b111001010101 X
b10111 9
b10111 Y
b10111 [
b11110000 !
b11110000 8
b11110000 W
b11110000 ]
1%
#46
0%
#47
b11001100 2
b11001100 \
b11001100 ^
b1 1
b1 T
1?
b11001100 A
b11001100 U
b11 ;
b11 P
b1001100 Z
04
1=
b1111001100 B
b1111001100 X
b11000 9
b11000 Y
b11000 [
1%
#48
0%
#49
b10111100 H
b10111100 O
b10111100 2
b10111100 \
b10111100 ^
b0 1
b0 T
0?
b11001100 I
b11001100 L
b10101010 A
b10101010 U
b1111 ;
b1111 P
b101010 Z
b111110101010 B
b111110101010 X
b11001 9
b11001 Y
b11001 [
b11001100 "
b11001100 7
b11001100 _
1%
#50
0%
#51
b11001010 2
b11001010 \
b11001010 ^
b1 1
b1 T
1@
b11001010 A
b11001010 U
b10 ;
b10 P
b1001010 Z
b1011001010 B
b1011001010 X
b11010 9
b11010 Y
b11010 [
1%
#52
0%
#53
b10101110 2
b10101110 \
b10101110 ^
1?
b1 1
b1 T
0@
b10010110 H
b10010110 O
b10101110 A
b10101110 U
b11 ;
b11 P
b101110 Z
b11001010 J
b11001010 K
b1110101110 B
b1110101110 X
b11011 9
b11011 Y
b11011 [
b11001010 !
b11001010 8
b11001010 W
b11001010 ]
1%
#54
0%
#55
13
0<
b1111000 H
b1111000 O
b10101110 I
b10101110 L
b1111000 2
b1111000 \
b1111000 ^
b0 1
b0 T
0?
b0 A
b0 U
b10000 ;
b10000 P
b0 Z
b10101110 "
b10101110 7
b10101110 _
b1000000000000 B
b1000000000000 X
b11100 9
b11100 Y
b11100 [
1%
#56
0%
#57
b10001 ;
b10001 P
b1000100000000 B
b1000100000000 X
b11101 9
b11101 Y
b11101 [
14
0=
1%
#58
0%
#59
b110011 2
b110011 \
b110011 ^
b1 1
b1 T
1@
b110011 A
b110011 U
b10 ;
b10 P
b110011 Z
b1000110011 B
b1000110011 X
b11110 9
b11110 Y
b11110 [
1%
1)
#60
0%
#61
03
1<
b11100001 2
b11100001 \
b11100001 ^
b0 1
b0 T
0@
b11100001 H
b11100001 O
b11110000 A
b11110000 U
b10010 ;
b10010 P
b1110000 Z
b110011 J
b110011 K
b1001011110000 B
b1001011110000 X
b11111 9
b11111 Y
b11111 [
b110011 !
b110011 8
b110011 W
b110011 ]
1%
#62
0%
#63
b10100101 2
b10100101 \
b10100101 ^
b1 1
b1 T
1?
b10100101 A
b10100101 U
b11 ;
b11 P
b100101 Z
04
1=
b1110100101 B
b1110100101 X
b100000 9
b100000 Y
b100000 [
1%
#64
0%
#65
b11011000 H
b11011000 O
b11011000 2
b11011000 \
b11011000 ^
b0 1
b0 T
0?
b10100101 I
b10100101 L
b1011010 A
b1011010 U
b10011 ;
b10011 P
b1011010 Z
b1001101011010 B
b1001101011010 X
b100001 9
b100001 Y
b100001 [
b10100101 "
b10100101 7
b10100101 _
1%
#66
0%
#67
b10101010 2
b10101010 \
b10101010 ^
b1 1
b1 T
1@
b10101010 A
b10101010 U
b10 ;
b10 P
b101010 Z
b1010101010 B
b1010101010 X
b100010 9
b100010 Y
b100010 [
1%
#68
0%
#69
13
0<
b1001111 2
b1001111 \
b1001111 ^
b0 1
b0 T
0@
b1001111 H
b1001111 O
b0 A
b0 U
b10100 ;
b10100 P
b0 Z
b10101010 J
b10101010 K
b1010000000000 B
b1010000000000 X
b100011 9
b100011 Y
b100011 [
b10101010 !
b10101010 8
b10101010 W
b10101010 ]
1%
#70
0%
#71
b11001100 2
b11001100 \
b11001100 ^
b1 1
b1 T
1?
b11001100 A
b11001100 U
b11 ;
b11 P
b1001100 Z
14
0=
b1111001100 B
b1111001100 X
b100100 9
b100100 Y
b100100 [
1%
#72
0%
#73
b1110110 H
b1110110 O
b1110110 2
b1110110 \
b1110110 ^
b0 1
b0 T
0?
b11001100 I
b11001100 L
b0 A
b0 U
b10111 ;
b10111 P
b0 Z
b1011100000000 B
b1011100000000 X
b100101 9
b100101 Y
b100101 [
b11001100 "
b11001100 7
b11001100 _
1%
1(
#74
0%
#75
b11111111 2
b11111111 \
b11111111 ^
b1 1
b1 T
1@
b11111111 A
b11111111 U
b10 ;
b10 P
b1111111 Z
b1011111111 B
b1011111111 X
b100110 9
b100110 Y
b100110 [
1%
#76
0%
#77
03
1<
b11110000 2
b11110000 \
b11110000 ^
1?
b1 1
b1 T
0@
b11001011 H
b11001011 O
b11110000 A
b11110000 U
b11 ;
b11 P
b1110000 Z
b11111111 J
b11111111 K
b1111110000 B
b1111110000 X
b100111 9
b100111 Y
b100111 [
b11111111 !
b11111111 8
b11111111 W
b11111111 ]
1%
#78
0%
#79
b11101111 H
b11101111 O
b11110000 I
b11110000 L
b11101111 2
b11101111 \
b11101111 ^
b0 1
b0 T
0?
b0 A
b0 U
b10101 ;
b10101 P
b0 Z
b11110000 "
b11110000 7
b11110000 _
04
1=
b1010100000000 B
b1010100000000 X
b101000 9
b101000 Y
b101000 [
1%
#80
0%
#81
b1111 2
b1111 \
b1111 ^
b1 1
b1 T
1@
b1111 A
b1111 U
b10 ;
b10 P
b1111 Z
b1000001111 B
b1000001111 X
b101001 9
b101001 Y
b101001 [
1%
#82
0%
#83
b11111111 H
b11111111 O
b11111111 2
b11111111 \
b11111111 ^
1?
b1 1
b1 T
0@
b1111 J
b1111 K
b11111111 A
b11111111 U
b11 ;
b11 P
b1111111 Z
b1111 !
b1111 8
b1111 W
b1111 ]
b1111111111 B
b1111111111 X
b101010 9
b101010 Y
b101010 [
1%
#84
0%
#85
b1110 2
b1110 \
b1110 ^
0<
b1110 H
b1110 O
b0 1
b0 T
0?
b11111111 I
b11111111 L
b0 A
b0 U
b10110 ;
b10110 P
b0 Z
b1011000000000 B
b1011000000000 X
b101011 9
b101011 Y
b101011 [
b11111111 "
b11111111 7
b11111111 _
1%
#86
0%
#87
b11001010 2
b11001010 \
b11001010 ^
b1 1
b1 T
1@
b11001010 A
b11001010 U
b10 ;
b10 P
b1001010 Z
0=
b1011001010 B
b1011001010 X
b101100 9
b101100 Y
b101100 [
1%
#88
0%
#89
03
1<
b10101110 2
b10101110 \
b10101110 ^
1?
b1 1
b1 T
0@
b11001001 H
b11001001 O
b10101110 A
b10101110 U
b11 ;
b11 P
b101110 Z
b11001010 J
b11001010 K
b1110101110 B
b1110101110 X
b101101 9
b101101 Y
b101101 [
b11001010 !
b11001010 8
b11001010 W
b11001010 ]
1%
#90
0%
#91
13
0<
b1111000 H
b1111000 O
b10101110 I
b10101110 L
b1111000 2
b1111000 \
b1111000 ^
b0 1
b0 T
0?
b0 A
b0 U
b11000 ;
b11000 P
b0 Z
b10101110 "
b10101110 7
b10101110 _
1=
b1100000000000 B
b1100000000000 X
b101110 9
b101110 Y
b101110 [
1%
#92
0%
#93
b101111 9
b101111 Y
b101111 [
14
0=
1%
#94
0%
#95
b11110000 2
b11110000 \
b11110000 ^
b1 1
b1 T
1@
b11110000 A
b11110000 U
b10 ;
b10 P
b1110000 Z
b1011110000 B
b1011110000 X
b110000 9
b110000 Y
b110000 [
1%
1.
#96
0%
#97
03
1<
b10101010 2
b10101010 \
b10101010 ^
1?
b1 1
b1 T
0@
b10011110 H
b10011110 O
b10101010 A
b10101010 U
b11 ;
b11 P
b101010 Z
b11110000 J
b11110000 K
b1110101010 B
b1110101010 X
b110001 9
b110001 Y
b110001 [
b11110000 !
b11110000 8
b11110000 W
b11110000 ]
1%
#98
0%
#99
b10011010 H
b10011010 O
b10101010 I
b10101010 L
b10011010 2
b10011010 \
b10011010 ^
b0 1
b0 T
0?
b0 A
b0 U
b11001 ;
b11001 P
b0 Z
b10101010 "
b10101010 7
b10101010 _
04
1=
b1100100000000 B
b1100100000000 X
b110010 9
b110010 Y
b110010 [
1%
#100
0%
#101
b111100 2
b111100 \
b111100 ^
b1 1
b1 T
1@
b111100 A
b111100 U
b10 ;
b10 P
b111100 Z
b1000111100 B
b1000111100 X
b110011 9
b110011 Y
b110011 [
1%
#102
0%
#103
b11100110 H
b11100110 O
b11100110 2
b11100110 \
b11100110 ^
b0 1
b0 T
0@
b111100 J
b111100 K
b11111111 A
b11111111 U
b11010 ;
b11010 P
b1111111 Z
b111100 !
b111100 8
b111100 W
b111100 ]
b1101011111111 B
b1101011111111 X
b110100 9
b110100 Y
b110100 [
1%
#104
0%
#105
b10010010 2
b10010010 \
b10010010 ^
b1 1
b1 T
1?
b10010010 A
b10010010 U
b11 ;
b11 P
b10010 Z
b1110010010 B
b1110010010 X
b110101 9
b110101 Y
b110101 [
1%
#106
0%
#107
b11001110 H
b11001110 O
b10010010 I
b10010010 L
b11001110 2
b11001110 \
b11001110 ^
b0 1
b0 T
0?
b1100110 A
b1100110 U
b11011 ;
b11011 P
b1100110 Z
b10010010 "
b10010010 7
b10010010 _
b1101101100110 B
b1101101100110 X
b110110 9
b110110 Y
b110110 [
1%
#108
0%
#109
b101 2
b101 \
b101 ^
b1 1
b1 T
1@
b101 A
b101 U
b10 ;
b10 P
b101 Z
b1000000101 B
b1000000101 X
b110111 9
b110111 Y
b110111 [
1%
#110
0%
#111
b10010111 H
b10010111 O
b10010111 2
b10010111 \
b10010111 ^
b0 1
b0 T
0@
b101 J
b101 K
b0 A
b0 U
b11100 ;
b11100 P
b0 Z
b101 !
b101 8
b101 W
b101 ]
b1110000000000 B
b1110000000000 X
b111000 9
b111000 Y
b111000 [
1%
#112
0%
#113
b1100 2
b1100 \
b1100 ^
b1 1
b1 T
1?
b1100 A
b1100 U
b11 ;
b11 P
b1100 Z
b1100001100 B
b1100001100 X
b111001 9
b111001 Y
b111001 [
1%
#114
0%
#115
03
0<
b10001 H
b10001 O
b1100 I
b1100 L
b10001 2
b10001 \
b10001 ^
b0 1
b0 T
0?
b0 A
b0 U
b11111 ;
b11111 P
b0 Z
b1100 "
b1100 7
b1100 _
b1111100000000 B
b1111100000000 X
b111010 9
b111010 Y
b111010 [
1%
1+
#116
0%
#117
b1100011 2
b1100011 \
b1100011 ^
b1 1
b1 T
1@
b1100011 A
b1100011 U
b10 ;
b10 P
b1100011 Z
b1001100011 B
b1001100011 X
b111011 9
b111011 Y
b111011 [
0=
1%
#118
0%
#119
b1101111 H
b1101111 O
b10101 2
b10101 \
b10101 ^
1?
b1 1
b1 T
0@
b1100011 J
b1100011 K
b10101 A
b10101 U
b11 ;
b11 P
b10101 Z
b1100011 !
b1100011 8
b1100011 W
b1100011 ]
b1100010101 B
b1100010101 X
b111100 9
b111100 Y
b111100 [
1%
#120
0%
#121
b1111000 H
b1111000 O
b1111000 2
b1111000 \
b1111000 ^
b0 1
b0 T
0?
b10101 I
b10101 L
b0 A
b0 U
b11101 ;
b11101 P
b0 Z
b1110100000000 B
b1110100000000 X
b111101 9
b111101 Y
b111101 [
b10101 "
b10101 7
b10101 _
1%
#122
0%
#123
b1011000 2
b1011000 \
b1011000 ^
b1 1
b1 T
1?
b1011000 A
b1011000 U
b11 ;
b11 P
b1011000 Z
b1101011000 B
b1101011000 X
b111110 9
b111110 Y
b111110 [
1%
#124
0%
#125
13
1<
b10111011 H
b10111011 O
b11110 2
b11110 \
b11110 ^
1@
b1 1
b1 T
0?
b1011000 I
b1011000 L
b11110 A
b11110 U
b10 ;
b10 P
b11110 Z
b1000011110 B
b1000011110 X
b111111 9
b111111 Y
b111111 [
b1011000 "
b1011000 7
b1011000 _
1%
#126
0%
#127
03
0<
b1110110 H
b1110110 O
b1110110 2
b1110110 \
b1110110 ^
b0 1
b0 T
0@
b11110 J
b11110 K
b0 A
b0 U
b11110 ;
b11110 P
b0 Z
b11110 !
b11110 8
b11110 W
b11110 ]
14
1=
b1111000000000 B
b1111000000000 X
b1000000 9
b1000000 Y
b1000000 [
1%
#128
0%
#129
b0 2
b0 \
b0 ^
b1 1
b1 T
1?
b11 ;
b11 P
b1100000000 B
b1100000000 X
b1000001 9
b1000001 Y
b1000001 [
04
0=
1%
#130
0%
#131
b11110 H
b11110 O
b0 I
b0 L
b11000000 2
b11000000 \
b11000000 ^
1@
b1 1
b1 T
0?
b11000000 A
b11000000 U
b10 ;
b10 P
b1000000 Z
b0 "
b0 7
b0 _
b1011000000 B
b1011000000 X
b1000010 9
b1000010 Y
b1000010 [
1%
#132
0%
#133
1<
b11000000 2
b11000000 \
b11000000 ^
b0 1
b0 T
0@
b11000000 H
b11000000 O
b0 A
b0 U
b11110 ;
b11110 P
b0 Z
b11000000 J
b11000000 K
b1111000000000 B
b1111000000000 X
b1000011 9
b1000011 Y
b1000011 [
b11000000 !
b11000000 8
b11000000 W
b11000000 ]
1%
#134
0%
#135
b1010 2
b1010 \
b1010 ^
b1 1
b1 T
1@
b1010 A
b1010 U
b10 ;
b10 P
b1010 Z
1=
b1000001010 B
b1000001010 X
b1000100 9
b1000100 Y
b1000100 [
1%
#136
0%
#137
03
0<
b1010 2
b1010 \
b1010 ^
b0 1
b0 T
0@
b1010 H
b1010 O
b0 A
b0 U
b100000 ;
b100000 P
b0 Z
b1010 J
b1010 K
b10000000000000 B
b10000000000000 X
b1000101 9
b1000101 Y
b1000101 [
b1010 !
b1010 8
b1010 W
b1010 ]
1%
#138
0%
#139
b11000 2
b11000 \
b11000 ^
b1 1
b1 T
1?
b11000 A
b11000 U
b11 ;
b11 P
b11000 Z
0=
b1100011000 B
b1100011000 X
b1000110 9
b1000110 Y
b1000110 [
1%
#140
0%
#141
b100010 H
b100010 O
b100010 2
b100010 \
b100010 ^
b0 1
b0 T
0?
b11000 I
b11000 L
b0 A
b0 U
b100011 ;
b100011 P
b0 Z
b10001100000000 B
b10001100000000 X
b1000111 9
b1000111 Y
b1000111 [
b11000 "
b11000 7
b11000 _
1%
1,
#142
0%
#143
b1100011 2
b1100011 \
b1100011 ^
b1 1
b1 T
1@
b1100011 A
b1100011 U
b10 ;
b10 P
b1100011 Z
b1001100011 B
b1001100011 X
b1001000 9
b1001000 Y
b1001000 [
1%
#144
0%
#145
b101010 2
b101010 \
b101010 ^
1?
b1 1
b1 T
0@
b1111011 H
b1111011 O
b101010 A
b101010 U
b11 ;
b11 P
b101010 Z
b1100011 J
b1100011 K
b1100101010 B
b1100101010 X
b1001001 9
b1001001 Y
b1001001 [
b1100011 !
b1100011 8
b1100011 W
b1100011 ]
1%
#146
0%
#147
13
1<
b10001101 H
b10001101 O
b101010 I
b101010 L
b10001101 2
b10001101 \
b10001101 ^
b0 1
b0 T
0?
b0 A
b0 U
b100001 ;
b100001 P
b0 Z
b101010 "
b101010 7
b101010 _
b10000100000000 B
b10000100000000 X
b1001010 9
b1001010 Y
b1001010 [
1%
#148
0%
#149
b1011000 2
b1011000 \
b1011000 ^
b1 1
b1 T
1?
b1011000 A
b1011000 U
b11 ;
b11 P
b1011000 Z
b1101011000 B
b1101011000 X
b1001011 9
b1001011 Y
b1001011 [
14
1=
1%
#150
0%
#151
b10111011 H
b10111011 O
b1011000 I
b1011000 L
b111100 2
b111100 \
b111100 ^
1@
b1 1
b1 T
0?
b111100 A
b111100 U
b10 ;
b10 P
b111100 Z
b1011000 "
b1011000 7
b1011000 _
b1000111100 B
b1000111100 X
b1001100 9
b1001100 Y
b1001100 [
1%
#152
0%
#153
b10010100 2
b10010100 \
b10010100 ^
b0 1
b0 T
0@
b10010100 H
b10010100 O
b0 A
b0 U
b100010 ;
b100010 P
b0 Z
b111100 J
b111100 K
b10001000000000 B
b10001000000000 X
b1001101 9
b1001101 Y
b1001101 [
b111100 !
b111100 8
b111100 W
b111100 ]
1%
#154
0%
#155
b0 2
b0 \
b0 ^
b1 1
b1 T
1?
b11 ;
b11 P
b1100000000 B
b1100000000 X
b1001110 9
b1001110 Y
b1001110 [
1%
#156
0%
#157
03
0<
b111100 H
b111100 O
b1101 2
b1101 \
b1101 ^
1@
b1 1
b1 T
0?
b0 I
b0 L
b1101 A
b1101 U
b10 ;
b10 P
b1101 Z
b1000001101 B
b1000001101 X
b1001111 9
b1001111 Y
b1001111 [
b0 "
b0 7
b0 _
1%
#158
0%
#159
b1101 H
b1101 O
b1101 2
b1101 \
b1101 ^
b0 1
b0 T
0@
b1101 J
b1101 K
b0 A
b0 U
b100010 ;
b100010 P
b0 Z
b1101 !
b1101 8
b1101 W
b1101 ]
04
0=
b10001000000000 B
b10001000000000 X
b1010000 9
b1010000 Y
b1010000 [
1%
#160
0%
#161
b110010 2
b110010 \
b110010 ^
b1 1
b1 T
1?
b110010 A
b110010 U
b11 ;
b11 P
b110010 Z
b1100110010 B
b1100110010 X
b1010001 9
b1010001 Y
b1010001 [
1%
#162
0%
#163
b111111 H
b111111 O
b110010 I
b110010 L
b111111 2
b111111 \
b111111 ^
b0 1
b0 T
0?
b0 A
b0 U
b100100 ;
b100100 P
b0 Z
b110010 "
b110010 7
b110010 _
b10010000000000 B
b10010000000000 X
b1010010 9
b1010010 Y
b1010010 [
1%
#164
0%
#165
b0 2
b0 \
b0 ^
b1 1
b1 T
1?
b11 ;
b11 P
b1100000000 B
b1100000000 X
b1010011 9
b1010011 Y
b1010011 [
1%
#166
0%
#167
b1101 H
b1101 O
b1101 2
b1101 \
b1101 ^
b0 I
b0 L
b0 1
b0 T
0?
b100100 ;
b100100 P
b0 "
b0 7
b0 _
b10010000000000 B
b10010000000000 X
b1010100 9
b1010100 Y
b1010100 [
1%
1&
#168
0%
#169
b11111111 2
b11111111 \
b11111111 ^
b1 1
b1 T
1?
b11111111 A
b11111111 U
b11 ;
b11 P
b1111111 Z
b1111111111 B
b1111111111 X
b1010101 9
b1010101 Y
b1010101 [
1%
#170
0%
#171
b1100 H
b1100 O
b11111111 I
b11111111 L
b1100 2
b1100 \
b1100 ^
b0 1
b0 T
0?
b0 A
b0 U
b100100 ;
b100100 P
b0 Z
b11111111 "
b11111111 7
b11111111 _
b10010000000000 B
b10010000000000 X
b1010110 9
b1010110 Y
b1010110 [
1%
#172
0%
#173
b11 1
b11 T
1@
b0 ;
b0 P
b0 B
b0 X
b1010111 9
b1010111 Y
b1010111 [
1%
#174
0%
#175
b1011 2
b1011 \
b1011 ^
b1011 H
b1011 O
b1100 J
b1100 K
b1100 !
b1100 8
b1100 W
b1100 ]
b1011000 9
b1011000 Y
b1011000 [
1%
#176
0%
#177
b1010 2
b1010 \
b1010 ^
b1010 H
b1010 O
b1011 J
b1011 K
b1011001 9
b1011001 Y
b1011001 [
b1011 !
b1011 8
b1011 W
b1011 ]
1%
